{
  "request": {
    "method": "GET",
    "urlPath": "/api/users",
    "queryParameters": {
      "page": { "matches": ".*" },
      "per_page": { "matches": ".*" }
    }
  },
  "response": {
    "status": 200,
    "headers": { "Content-Type": "application/json" },
    "jsonBody": {
      "page": 1,
      "per_page": 3,
      "total": 12,
      "total_pages": 4,
      "data": [
        { "id": 1, "email": "a@test.com" },
        { "id": 2, "email": "b@test.com" }
      ]
    }
  }
}